{
  "name": "fontello-admin",
  "css_prefix_text": "iconadmin-",
  "css_use_suffix": false,
  "hinting": true,
  "units_per_em": 1000,
  "ascent": 850,
  "glyphs": [
    {
      "uid": "2a6740fc2f9d0edea54205963f662594",
      "css": "spin3",
      "code": 59673,
      "src": "fontelico"
    },
    {
      "uid": "bf882b30900da12fca090d9796bc3030",
      "css": "mail",
      "code": 59567,
      "src": "fontawesome"
    },
    {
      "uid": "ccc2329632396dc096bb638d4b46fb98",
      "css": "mail-alt",
      "code": 59392,
      "src": "fontawesome"
    },
    {
      "uid": "8b80d36d4ef43889db10bc1f0dc9a862",
      "css": "user-alt",
      "code": 59645,
      "src": "fontawesome"
    },
    {
      "uid": "31972e4e9d080eaa796290349ae6c1fd",
      "css": "users-group",
      "code": 59646,
      "src": "fontawesome"
    },
    {
      "uid": "ca2d64f8a3ea7cbf6af45898b2dcf35e",
      "css": "male",
      "code": 59397,
      "src": "fontawesome"
    },
    {
      "uid": "9bf7e14698cccdca37a6f1a02cf7d79e",
      "css": "female",
      "code": 59398,
      "src": "fontawesome"
    },
    {
      "uid": "c2314ed1d2314b89f9285c53bcbf2548",
      "css": "child",
      "code": 59486,
      "src": "fontawesome"
    },
    {
      "uid": "381da2c2f7fd51f8de877c044d7f439d",
      "css": "picture",
      "code": 59669,
      "src": "fontawesome"
    },
    {
      "uid": "12f4ece88e46abd864e40b35e05b11cd",
      "css": "ok",
      "code": 59402,
      "src": "fontawesome"
    },
    {
      "uid": "43ab845088317bd348dee1d975700c48",
      "css": "ok-circled",
      "code": 59545,
      "src": "fontawesome"
    },
    {
      "uid": "ad33e708f4d2e25c5056c931da1528d6",
      "css": "ok-circled2",
      "code": 59546,
      "src": "fontawesome"
    },
    {
      "uid": "5211af474d3a9848f67f945e2ccaf143",
      "css": "delete",
      "code": 59399,
      "src": "fontawesome"
    },
    {
      "uid": "44e04715aecbca7f266a17d5a7863c68",
      "css": "plus",
      "code": 59403,
      "src": "fontawesome"
    },
    {
      "uid": "861ab06e455e2de3232ebef67d60d708",
      "css": "minus",
      "code": 59404,
      "src": "fontawesome"
    },
    {
      "uid": "0ddd3e8201ccc7d41f7b7c9d27eca6c1",
      "css": "link",
      "code": 59533,
      "src": "fontawesome"
    },
    {
      "uid": "1dcd2b2148b7f086a4eb47f6a746bdee",
      "css": "unlink",
      "code": 59534,
      "src": "fontawesome"
    },
    {
      "uid": "c1f1975c885aa9f3dad7810c53b82074",
      "css": "lock",
      "code": 59569,
      "src": "fontawesome"
    },
    {
      "uid": "657ab647f6248a6b57a5b893beaf35a9",
      "css": "lock-open",
      "code": 59675,
      "src": "fontawesome"
    },
    {
      "uid": "5b0772e9484a1a11646793a82edd622a",
      "css": "pin",
      "code": 59535,
      "src": "fontawesome"
    },
    {
      "uid": "d35a1d35efeb784d1dc9ac18b9b6c2b6",
      "css": "pencil",
      "code": 59409,
      "src": "fontawesome"
    },
    {
      "uid": "41087bc74d4b20b55059c60a33bf4008",
      "css": "edit",
      "code": 59561,
      "src": "fontawesome"
    },
    {
      "uid": "7277ded7695b2a307a5f9d50097bb64c",
      "css": "print",
      "code": 59408,
      "src": "fontawesome"
    },
    {
      "uid": "ecb97add13804c190456025e43ec003b",
      "css": "keyboard",
      "code": 59410,
      "src": "fontawesome"
    },
    {
      "uid": "85528017f1e6053b2253785c31047f44",
      "css": "comment",
      "code": 59563,
      "src": "fontawesome"
    },
    {
      "uid": "dcedf50ab1ede3283d7a6c70e2fe32f3",
      "css": "chat",
      "code": 59666,
      "src": "fontawesome"
    },
    {
      "uid": "9c1376672bb4f1ed616fdd78a23667e9",
      "css": "comment-empty",
      "code": 59564,
      "src": "fontawesome"
    },
    {
      "uid": "00391fac5d419345ffcccd95b6f76263",
      "css": "attention",
      "code": 59411,
      "src": "fontawesome"
    },
    {
      "uid": "f48ae54adfb27d8ada53d0fd9e34ee10",
      "css": "trash",
      "code": 59412,
      "src": "fontawesome"
    },
    {
      "uid": "1b5a5d7b7e3c71437f5a26befdd045ed",
      "css": "doc",
      "code": 59637,
      "src": "fontawesome"
    },
    {
      "uid": "c8585e1e5b0467f28b70bce765d5840c",
      "css": "docs",
      "code": 59638,
      "src": "fontawesome"
    },
    {
      "uid": "5408be43f7c42bccee419c6be53fdef5",
      "css": "doc-text",
      "code": 59529,
      "src": "fontawesome"
    },
    {
      "uid": "178053298e3e5b03551d754d4b9acd8b",
      "css": "doc-inv",
      "code": 59532,
      "src": "fontawesome"
    },
    {
      "uid": "c08a1cde48d96cba21d8c05fa7d7feb1",
      "css": "doc-text-inv",
      "code": 59531,
      "src": "fontawesome"
    },
    {
      "uid": "9daa1fdf0838118518a7e22715e83abc",
      "css": "file-pdf",
      "code": 59469,
      "src": "fontawesome"
    },
    {
      "uid": "310ffd629da85142bc8669f010556f2d",
      "css": "file-word",
      "code": 59470,
      "src": "fontawesome"
    },
    {
      "uid": "f761c3bbe16ba2d332914ecb28e7a042",
      "css": "file-excel",
      "code": 59471,
      "src": "fontawesome"
    },
    {
      "uid": "edcd4022de8d8df266ef7c42d2658ca5",
      "css": "file-powerpoint",
      "code": 59472,
      "src": "fontawesome"
    },
    {
      "uid": "3c961c1a8d874815856fc6637dc5a13c",
      "css": "file-image",
      "code": 59473,
      "src": "fontawesome"
    },
    {
      "uid": "e80ae555c1413a4ec18b33fb348b4049",
      "css": "file-archive",
      "code": 59474,
      "src": "fontawesome"
    },
    {
      "uid": "81db033e704eb7c586a365559d7c0f36",
      "css": "file-audio",
      "code": 59475,
      "src": "fontawesome"
    },
    {
      "uid": "dd69d9aa589ea7bc0a82a3fe67039f4b",
      "css": "file-video",
      "code": 59476,
      "src": "fontawesome"
    },
    {
      "uid": "26613a2e6bc41593c54bead46f8c8ee3",
      "css": "file-code",
      "code": 59477,
      "src": "fontawesome"
    },
    {
      "uid": "f8aa663c489bcbd6e68ec8147dca841e",
      "css": "folder",
      "code": 59527,
      "src": "fontawesome"
    },
    {
      "uid": "c95735c17a10af81448c7fed98a04546",
      "css": "folder-open",
      "code": 59528,
      "src": "fontawesome"
    },
    {
      "uid": "b091a8bd0fdade174951f17d936f51e4",
      "css": "folder-empty",
      "code": 59499,
      "src": "fontawesome"
    },
    {
      "uid": "6533bdc16ab201eb3f3b27ce989cab33",
      "css": "folder-open-empty",
      "code": 59462,
      "src": "fontawesome"
    },
    {
      "uid": "e99461abfef3923546da8d745372c995",
      "css": "cog",
      "code": 59497,
      "src": "fontawesome"
    },
    {
      "uid": "98687378abd1faf8f6af97c254eb6cd6",
      "css": "cogs",
      "code": 59663,
      "src": "fontawesome"
    },
    {
      "uid": "5bb103cd29de77e0e06a52638527b575",
      "css": "wrench",
      "code": 59664,
      "src": "fontawesome"
    },
    {
      "uid": "21b42d3c3e6be44c3cc3d73042faa216",
      "css": "sliders",
      "code": 59498,
      "src": "fontawesome"
    },
    {
      "uid": "76857a03fbaa6857fe063b6c25aa98ed",
      "css": "volume-up",
      "code": 59466,
      "src": "fontawesome"
    },
    {
      "uid": "757afacc32d82967975cbb3b45cfb41b",
      "css": "desktop",
      "code": 59413,
      "src": "fontawesome"
    },
    {
      "uid": "500fc1f109021e4b1de4deda2f7ed399",
      "css": "laptop",
      "code": 59414,
      "src": "fontawesome"
    },
    {
      "uid": "f001fc3d4daa7da078e8c971e4f36977",
      "css": "tablet",
      "code": 59416,
      "src": "fontawesome"
    },
    {
      "uid": "0357f7abbc0babf43509669f332e41e6",
      "css": "mobile",
      "code": 59417,
      "src": "fontawesome"
    },
    {
      "uid": "197375a3cea8cb90b02d06e4ddf1433d",
      "css": "globe",
      "code": 59588,
      "src": "fontawesome"
    },
    {
      "uid": "f9cbf7508cd04145ade2800169959eef",
      "css": "font",
      "code": 59455,
      "src": "fontawesome"
    },
    {
      "uid": "02cca871bb69da75e8ee286b7055832c",
      "css": "bold",
      "code": 59451,
      "src": "fontawesome"
    },
    {
      "uid": "a8cb1c217f02b073db3670c061cc54d2",
      "css": "italic",
      "code": 59452,
      "src": "fontawesome"
    },
    {
      "uid": "0c708edd8fae2376b3370aa56d40cf9e",
      "css": "header",
      "code": 59523,
      "src": "fontawesome"
    },
    {
      "uid": "c5845105a87df2ee1999826d90622f6a",
      "css": "paragraph",
      "code": 59524,
      "src": "fontawesome"
    },
    {
      "uid": "c009d417f87d6a27bb5a1cefd30b6cbd",
      "css": "text-height",
      "code": 59453,
      "src": "fontawesome"
    },
    {
      "uid": "13a971bcccd2dda26d4d4eccd8593f8a",
      "css": "text-width",
      "code": 59454,
      "src": "fontawesome"
    },
    {
      "uid": "f4f0e849b805be1f6d76b65581cb3b8b",
      "css": "align-left",
      "code": 59435,
      "src": "fontawesome"
    },
    {
      "uid": "ae6336c46d73af999fe7460c089abb4d",
      "css": "align-center",
      "code": 59436,
      "src": "fontawesome"
    },
    {
      "uid": "e1e7306b47c3c5e6faecce9d32571381",
      "css": "align-right",
      "code": 59441,
      "src": "fontawesome"
    },
    {
      "uid": "25a81737628d1e654a30ad412d7d6dd7",
      "css": "align-justify",
      "code": 59442,
      "src": "fontawesome"
    },
    {
      "uid": "594e9271c08ff732c04b3bf3117b9040",
      "css": "indent-left",
      "code": 59445,
      "src": "fontawesome"
    },
    {
      "uid": "4d2dfc45d8176b1f26aed973fa84a91e",
      "css": "indent-right",
      "code": 59446,
      "src": "fontawesome"
    },
    {
      "uid": "a2a74f5e7b7d9ba054897d8c795a326a",
      "css": "list-bullet",
      "code": 59443,
      "src": "fontawesome"
    },
    {
      "uid": "f6766a8b042c2453a4e153af03294383",
      "css": "list-numbered",
      "code": 59444,
      "src": "fontawesome"
    },
    {
      "uid": "61c242c9e2134d5864d7fdd57b3c9289",
      "css": "strike",
      "code": 59450,
      "src": "fontawesome"
    },
    {
      "uid": "d4a4a38a40b728f46dad1de4ac950231",
      "css": "underline",
      "code": 59449,
      "src": "fontawesome"
    },
    {
      "uid": "4e88371fb8857dacc1f66afe6314e426",
      "css": "superscript",
      "code": 59447,
      "src": "fontawesome"
    },
    {
      "uid": "3d1c929dbc966992185ce749548c1b2c",
      "css": "subscript",
      "code": 59448,
      "src": "fontawesome"
    },
    {
      "uid": "8fb55fd696d9a0f58f3b27c1d8633750",
      "css": "table",
      "code": 59522,
      "src": "fontawesome"
    },
    {
      "uid": "53dd31a6cc6438192b2d7b09b1c1dd45",
      "css": "columns",
      "code": 59521,
      "src": "fontawesome"
    },
    {
      "uid": "8b9e6a8dd8f67f7c003ed8e7e5ee0857",
      "css": "off",
      "code": 59458,
      "src": "fontawesome"
    },
    {
      "uid": "c819c6225685bae2eed1b8da13e629fa",
      "css": "list-alt",
      "code": 59479,
      "src": "fontawesome"
    },
    {
      "uid": "dd6c6b221a1088ff8a9b9cd32d0b3dd5",
      "css": "checkbox",
      "code": 59456,
      "src": "fontawesome"
    },
    {
      "uid": "4b900d04e8ab8c82f080c1cfbac5772c",
      "css": "checkbox-empty",
      "code": 59457,
      "src": "fontawesome"
    },
    {
      "uid": "130380e481a7defc690dfb24123a1f0c",
      "css": "circle",
      "code": 59687,
      "src": "fontawesome"
    },
    {
      "uid": "422e07e5afb80258a9c4ed1706498f8a",
      "css": "circle-empty",
      "code": 59688,
      "src": "fontawesome"
    },
    {
      "uid": "81bb68665e8e595505272a746db07c7a",
      "css": "dot-circled",
      "code": 59689,
      "src": "fontawesome"
    },
    {
      "uid": "266d5d9adf15a61800477a5acf9a4462",
      "css": "chart-bar",
      "code": 59500,
      "src": "fontawesome"
    },
    {
      "uid": "554ee96588a6c9ee632624cd051fe6fc",
      "css": "chart-pie",
      "code": 59501,
      "src": "fontawesome"
    },
    {
      "uid": "f4445feb55521283572ee88bc304f928",
      "css": "floppy",
      "code": 59464,
      "src": "fontawesome"
    },
    {
      "uid": "486b835e9eebf54eee78ed12b4291b86",
      "css": "euro",
      "code": 59513,
      "src": "fontawesome"
    },
    {
      "uid": "9854f7f091bd4fdf9b8735ed66667b9d",
      "css": "pound",
      "code": 59514,
      "src": "fontawesome"
    },
    {
      "uid": "026007bd17bfc67f3fe013199676f620",
      "css": "dollar",
      "code": 59515,
      "src": "fontawesome"
    },
    {
      "uid": "62e4fa2c664818d20ce4740cadbf9aeb",
      "css": "rupee",
      "code": 59516,
      "src": "fontawesome"
    },
    {
      "uid": "5f61f8a682b77d2529296a8061bf9597",
      "css": "yen",
      "code": 59512,
      "src": "fontawesome"
    },
    {
      "uid": "243424d56528e83e4fe9ef6e6347a2ef",
      "css": "rouble",
      "code": 59517,
      "src": "fontawesome"
    },
    {
      "uid": "0cd2582b8c93719d066ee0affd02ac78",
      "css": "sort-alt-up",
      "code": 59506,
      "src": "fontawesome"
    },
    {
      "uid": "27b13eff5eb0ca15e01a6e65ffe6eeec",
      "css": "sort-alt-down",
      "code": 59507,
      "src": "fontawesome"
    },
    {
      "uid": "3ed68ae14e9cde775121954242a412b2",
      "css": "sort-name-up",
      "code": 59508,
      "src": "fontawesome"
    },
    {
      "uid": "6586267200a42008a9fc0a1bf7ac06c7",
      "css": "sort-name-down",
      "code": 59509,
      "src": "fontawesome"
    },
    {
      "uid": "3a7b6876c1817ce3b801b86c04a9d0af",
      "css": "sort-number-up",
      "code": 59510,
      "src": "fontawesome"
    },
    {
      "uid": "b04fc30546f597a7e0a14715e6fc81ff",
      "css": "sort-number-down",
      "code": 59511,
      "src": "fontawesome"
    },
    {
      "uid": "6fe95ffc3c807e62647d4f814a96e0d7",
      "css": "sitemap",
      "code": 59505,
      "src": "fontawesome"
    },
    {
      "uid": "2c2ca8a96b31781c9c8056d05c0a8980",
      "css": "blank",
      "code": 59536,
      "src": "fontawesome"
    },
    {
      "uid": "39e2e6682c28e1e3b5f49825a19717c4",
      "css": "note",
      "code": 59468,
      "src": "entypo"
    },
    {
      "uid": "7222571caa5c15f83dcfd447c58d68d9",
      "css": "search",
      "code": 59467,
      "src": "entypo"
    },
    {
      "uid": "0eabe5f8d71cc838484ff39436426d2d",
      "css": "heart",
      "code": 59406,
      "src": "entypo"
    },
    {
      "uid": "d18071bbf8f0a8cec8d1f556c91c6af0",
      "css": "heart-empty",
      "code": 59395,
      "src": "entypo"
    },
    {
      "uid": "25b34dea4784f72c710454f32ff8fa2b",
      "css": "star",
      "code": 59484,
      "src": "entypo"
    },
    {
      "uid": "0e3f1335f83cca67329b2c4bcb3aaec5",
      "css": "star-empty",
      "code": 59485,
      "src": "entypo"
    },
    {
      "uid": "bbd66ef66bb8fa9edde54d9a90b89150",
      "css": "user",
      "code": 59418,
      "src": "entypo"
    },
    {
      "uid": "ecf8edb95c3f45eb433b4cce7ba9f740",
      "css": "users",
      "code": 59419,
      "src": "entypo"
    },
    {
      "uid": "6274e0601f2feef7eced89146e708de0",
      "css": "user-add",
      "code": 59420,
      "src": "entypo"
    },
    {
      "uid": "6341ebcbe1ed1f6777c1b9527ead368e",
      "css": "video",
      "code": 59394,
      "src": "entypo"
    },
    {
      "uid": "3def559c3c39b8500882e02892b7daa8",
      "css": "pictures",
      "code": 59400,
      "src": "entypo"
    },
    {
      "uid": "85017ab6ca074831a8de771b40e9640c",
      "css": "camera",
      "code": 59393,
      "src": "entypo"
    },
    {
      "uid": "5e9f01871d44e56b45ecbfd00f4dbc3a",
      "css": "layout",
      "code": 59396,
      "src": "entypo"
    },
    {
      "uid": "2cfb3f2b46b34a1790aec0aa846297b6",
      "css": "menu",
      "code": 59520,
      "src": "entypo"
    },
    {
      "uid": "14017aae737730faeda4a6fd8fb3a5f0",
      "css": "check",
      "code": 59519,
      "src": "entypo"
    },
    {
      "uid": "c709da589c923ba3c2ad48d9fc563e93",
      "css": "cancel",
      "code": 59401,
      "src": "entypo"
    },
    {
      "uid": "c759418c008e9562944080fee617fc76",
      "css": "cancel-circled",
      "code": 59541,
      "src": "entypo"
    },
    {
      "uid": "bf45c39702763f1803b550c36a0ceb12",
      "css": "cancel-squared",
      "code": 59542,
      "src": "entypo"
    },
    {
      "uid": "a66cdc7278e6b33b8bd44a141f5e1a8d",
      "css": "plus-circled",
      "code": 59537,
      "src": "entypo"
    },
    {
      "uid": "9e1c33b6849ceb08db8acfaf02188b7d",
      "css": "plus-squared",
      "code": 59538,
      "src": "entypo"
    },
    {
      "uid": "3eb93689881ad0804f87052a53edc2b6",
      "css": "minus-circled",
      "code": 59539,
      "src": "entypo"
    },
    {
      "uid": "4ffa544c1a81c905f0a8a5745d8b9faa",
      "css": "minus-squared",
      "code": 59540,
      "src": "entypo"
    },
    {
      "uid": "3a230e539a4f3b904debd04c6c155034",
      "css": "help",
      "code": 59526,
      "src": "entypo"
    },
    {
      "uid": "de9a631a7d18106aea1c89ba51b1990a",
      "css": "help-circled",
      "code": 59543,
      "src": "entypo"
    },
    {
      "uid": "63b86fedd4ee9ad2105f54f4888e7088",
      "css": "info",
      "code": 59518,
      "src": "entypo"
    },
    {
      "uid": "7e4164950ffa4990961958b2d6318658",
      "css": "info-circled",
      "code": 59544,
      "src": "entypo"
    },
    {
      "uid": "513ac180ff85bd275f2b736720cbbf5e",
      "css": "home",
      "code": 59465,
      "src": "entypo"
    },
    {
      "uid": "44b9e75612c5fad5505edd70d071651f",
      "css": "attach",
      "code": 59488,
      "src": "entypo"
    },
    {
      "uid": "25fc99a30fecc4021fdcae5fff5ba9ac",
      "css": "eye",
      "code": 59487,
      "src": "entypo"
    },
    {
      "uid": "b08cfe8039de2ce815686aced2caef06",
      "css": "download",
      "code": 59421,
      "src": "entypo"
    },
    {
      "uid": "44199a54057e6e264fde61a49b034171",
      "css": "upload",
      "code": 59422,
      "src": "entypo"
    },
    {
      "uid": "c3e5dafba1739ef33cc574c7484febf7",
      "css": "quote",
      "code": 59490,
      "src": "entypo"
    },
    {
      "uid": "b6f32db98a3de777f5ae3005191b1831",
      "css": "code",
      "code": 59481,
      "src": "entypo"
    },
    {
      "uid": "16890362e811b4cb8de36282b071fe30",
      "css": "comment-alt",
      "code": 59415,
      "src": "entypo"
    },
    {
      "uid": "da0fd38d651815e3a12f6c030ff1fe5b",
      "css": "newspaper",
      "code": 59424,
      "src": "entypo"
    },
    {
      "uid": "51727ca007aa35ceabcaffc28934faee",
      "css": "book-open",
      "code": 59478,
      "src": "entypo"
    },
    {
      "uid": "3e617d8049807e128c80d0344ba09e37",
      "css": "rss",
      "code": 59405,
      "src": "entypo"
    },
    {
      "uid": "5854855e963044f93b15738a5bb27a29",
      "css": "phone",
      "code": 59463,
      "src": "entypo"
    },
    {
      "uid": "bc64550dd022ce21604f97309b346cea",
      "css": "cog-alt",
      "code": 59428,
      "src": "entypo"
    },
    {
      "uid": "6a7b9d4863bb7e6c79e9457a72d689b6",
      "css": "tools",
      "code": 59423,
      "src": "entypo"
    },
    {
      "uid": "91426c82d94428a33353e495418435e3",
      "css": "share",
      "code": 59407,
      "src": "entypo"
    },
    {
      "uid": "e126987944593dfee041f8e2a68145db",
      "css": "basket",
      "code": 59480,
      "src": "entypo"
    },
    {
      "uid": "413717f5ea649e8d8b93938be277264a",
      "css": "calendar",
      "code": 59489,
      "src": "entypo"
    },
    {
      "uid": "a204f0fa972408eaae5a363c444991b2",
      "css": "login",
      "code": 59425,
      "src": "entypo"
    },
    {
      "uid": "2d76f2c8d13be40694ecadfea7fb83c3",
      "css": "logout",
      "code": 59426,
      "src": "entypo"
    },
    {
      "uid": "8663320a860b00f26e94d3d15c9ba99a",
      "css": "clock",
      "code": 59461,
      "src": "entypo"
    },
    {
      "uid": "744a71fe4b5ab7c4f4b7cd598e9bf75a",
      "css": "window",
      "code": 59530,
      "src": "entypo"
    },
    {
      "uid": "0a3192de65a73ca1501b073ad601f87d",
      "css": "arrow-combo",
      "code": 59491,
      "src": "entypo"
    },
    {
      "uid": "8704cd847a47b64265b8bb110c8b4d62",
      "css": "down-open",
      "code": 59437,
      "src": "entypo"
    },
    {
      "uid": "c311c48d79488965b0fab7f9cd12b6b5",
      "css": "left-open",
      "code": 59438,
      "src": "entypo"
    },
    {
      "uid": "749e7d90a9182938180f1d2d8c33584e",
      "css": "right-open",
      "code": 59439,
      "src": "entypo"
    },
    {
      "uid": "9c7ff134960bb5a82404e4aeaab366d9",
      "css": "up-open",
      "code": 59440,
      "src": "entypo"
    },
    {
      "uid": "f11c9e95ae5eaa84d193e8fa1d38c6f9",
      "css": "down-open-mini",
      "code": 59427,
      "src": "entypo"
    },
    {
      "uid": "592717bd601645d61517d2a584d04127",
      "css": "left-open-mini",
      "code": 59429,
      "src": "entypo"
    },
    {
      "uid": "37f6cfbb4062ed0d01b351ec35c334ff",
      "css": "right-open-mini",
      "code": 59430,
      "src": "entypo"
    },
    {
      "uid": "9e251fb8e9e1c71ab09683468e0479a3",
      "css": "up-open-mini",
      "code": 59431,
      "src": "entypo"
    },
    {
      "uid": "d5098cb09be5827a2911dbab5af49ad2",
      "css": "down",
      "code": 59492,
      "src": "entypo"
    },
    {
      "uid": "6acd5cf005d48f96787350e72bd45688",
      "css": "left",
      "code": 59493,
      "src": "entypo"
    },
    {
      "uid": "9e67bfab0143d9511f8eef6897caeb88",
      "css": "right",
      "code": 59494,
      "src": "entypo"
    },
    {
      "uid": "43c4064ec1260d0e55c37e0467c75cbb",
      "css": "up",
      "code": 59495,
      "src": "entypo"
    },
    {
      "uid": "7e89c12b577c31bc91bfb61bb597f01f",
      "css": "down-dir",
      "code": 59630,
      "src": "entypo"
    },
    {
      "uid": "9aeaf29161eb005a308bbd624d6e066a",
      "css": "left-dir",
      "code": 59631,
      "src": "entypo"
    },
    {
      "uid": "ff9a85aa20950dcc0615a2707a2b3f8e",
      "css": "right-dir",
      "code": 59632,
      "src": "entypo"
    },
    {
      "uid": "401b644723fb2f20b0df30cce7745c18",
      "css": "up-dir",
      "code": 59633,
      "src": "entypo"
    },
    {
      "uid": "465bb89b6f204234e5787c326b4ae54c",
      "css": "ccw",
      "code": 59432,
      "src": "entypo"
    },
    {
      "uid": "bb46b15cb78cc4cc05d3d715d522ac4d",
      "css": "cw",
      "code": 59433,
      "src": "entypo"
    },
    {
      "uid": "3bd18d47a12b8709e9f4fe9ead4f7518",
      "css": "arrows-ccw",
      "code": 59434,
      "src": "entypo"
    },
    {
      "uid": "80451d627470ea7f977a263fdb771d7b",
      "css": "palette",
      "code": 59525,
      "src": "entypo"
    },
    {
      "uid": "3626b3f3a0b284e7f4166b815719aece",
      "css": "list",
      "code": 59460,
      "src": "entypo"
    },
    {
      "uid": "97bd5542ed3e143d2ee9b60e14487615",
      "css": "list-add",
      "code": 59459,
      "src": "entypo"
    },
    {
      "uid": "84a7262985600b683bbab0da9298776d",
      "css": "signal",
      "code": 59496,
      "src": "entypo"
    },
    {
      "uid": "b7a336095aa4535c3689cb557edf23db",
      "css": "monitor",
      "code": 59482,
      "src": "entypo"
    },
    {
      "uid": "d2c6b59d9a239140cb76be0627480855",
      "css": "dot",
      "code": 59502,
      "src": "entypo"
    },
    {
      "uid": "13b11ab72c6ae9c97ee12428e17f3a4e",
      "css": "dot2",
      "code": 59503,
      "src": "entypo"
    },
    {
      "uid": "d10920db2e79c997c5e783279291970c",
      "css": "dot3",
      "code": 59504,
      "src": "entypo"
    },
    {
      "uid": "5f3a0ebf2d13f60ec7ed76eb41ba9bb2",
      "css": "air",
      "code": 59558,
      "src": "entypo"
    },
    {
      "uid": "191bcf63575a78def53c907c3d3bf7f0",
      "css": "floppy-alt",
      "code": 59483,
      "src": "entypo"
    }
  ]
}